…
#> $match_info$crowd
#> [1] 82922


#> $team_info
#> # A tibble: 2 x 9
#>  rlp_team_id team_name   rlp_coach_id coach   ht_score ft_score scrums penalties is_home
#>        <dbl> <chr>              <dbl> <chr>      <dbl>    <dbl>  <dbl>     <dbl> <lgl>  
#> 1          11 Sydney Roo~         2924 Trent ~        8       14     NA        NA TRUE   
#> 2           2 Canberra R~          211 Ricky ~        6        8     NA        NA FALSE  

#> $player_info
#> # A tibble: 34 x 11
#>    rlp_player_id name     number position team_name  is_captain tries goals goal_attempts
#>            <dbl> <chr>     <dbl> <chr>    <chr>      <lgl>      <dbl> <dbl>         <dbl>
#>  1         19474 James T~      1 FB       Sydney Ro~ FALSE          1     0             0
#>  2         20005 Daniel ~      2 W        Sydney Ro~ FALSE          0     0             0
#>  3         22609 Latrell~      3 C        Sydney Ro~ FALSE          0     3             5
#>  4         22779 Joseph ~      4 C        Sydney Ro~ FALSE          0     0             0
#>  5          3701 Brett M~      5 W        Sydney Ro~ FALSE          0     0             0
#>  6         20149 Luke KE~      6 FE       Sydney Ro~ FALSE          0     0             0
#>  7          1595 Cooper ~      7 HB       Sydney Ro~ FALSE          0     0             0
#>  8         13876 Jared W~      8 FR       Sydney Ro~ FALSE          0     0             0
#>  9         28452 Sam VER~      9 HK       Sydney Ro~ FALSE          1     0             0
#> 10         20316 Isaac L~     10 FR       Sydney Ro~ FALSE          0     0             0
#> # ... with 24 more rows, and 2 more variables: sin_bins <dbl>, send_offs <dbl>
…
